fromNode	toNode	weight	direction	fromAltName	toAltName
NSMCE2	NSMCE2.1	0.0456584331316078	undirected	NSMCE2	NSMCE2
NSMCE2	NSMCE2.3	0.0256157143176815	undirected	NSMCE2	NSMCE2
RB1CC1	ATP6V1C1	0.0271821474220397	undirected	RB1CC1	ATP6V1C1
RB1CC1	ATP6V1C1.1	0.0216199601114464	undirected	RB1CC1	ATP6V1C1
RB1CC1	ATP6V1C1.2	0.0226520412455196	undirected	RB1CC1	ATP6V1C1
RPL30	RPL7	0.110393378802844	undirected	RPL30	RPL7
RPL30	RPL7.1	0.111222772533554	undirected	RPL30	RPL7
PABPC1	RPL7	0.021545438047744	undirected	PABPC1	RPL7
PABPC1	RPL7.1	0.0229475890574616	undirected	PABPC1	RPL7
TSNARE1	TSNARE1.1	0.0867635423747035	undirected	TSNARE1	TSNARE1
TSNARE1	TSNARE1.2	0.040208798922937	undirected	TSNARE1	TSNARE1
TSNARE1	TSNARE1.3	0.130625542666492	undirected	TSNARE1	TSNARE1
TSNARE1	TSNARE1.4	0.0458549406819692	undirected	TSNARE1	TSNARE1
TSNARE1.1	TSNARE1.2	0.0508988735902928	undirected	TSNARE1	TSNARE1
TSNARE1.1	TSNARE1.3	0.0799347565980663	undirected	TSNARE1	TSNARE1
TSNARE1.1	TSNARE1.4	0.057766603142784	undirected	TSNARE1	TSNARE1
TSNARE1.2	TSNARE1.3	0.0683032219339931	undirected	TSNARE1	TSNARE1
TSNARE1.3	TSNARE1.4	0.0309050772835013	undirected	TSNARE1	TSNARE1
UTP23	UTP23.1	0.125669994953521	undirected	UTP23	UTP23
UTP23	NSMCE2.1	0.0207173123212171	undirected	UTP23	NSMCE2
UTP23	NSMCE2.3	0.0242162311746676	undirected	UTP23	NSMCE2
UTP23	ATP6V1C1	0.0297796730676696	undirected	UTP23	ATP6V1C1
UTP23	ATP6V1C1.1	0.0246812061162419	undirected	UTP23	ATP6V1C1
UTP23	ATP6V1C1.2	0.0428129018187335	undirected	UTP23	ATP6V1C1
UTP23.1	ATP6V1C1	0.0240085799652452	undirected	UTP23	ATP6V1C1
UTP23.1	ATP6V1C1.2	0.0330449653899451	undirected	UTP23	ATP6V1C1
TERF1	TERF1.1	0.0345409999079888	undirected	TERF1	TERF1
TERF1	TERF1.2	0.0241183875617365	undirected	TERF1	TERF1
TERF1.1	TERF1.2	0.280943292411392	undirected	TERF1	TERF1
LRRC14	ZNF7	0.0322540531524148	undirected	LRRC14	ZNF7
SNX16	SNX16.1	0.0268572212080094	undirected	SNX16	SNX16
SNX16	SNX16.3	0.0258780241972628	undirected	SNX16	SNX16
SNX16.1	SNX16.3	0.0361880849919004	undirected	SNX16	SNX16
POLR2K	MRPL13	0.0522826100185953	undirected	POLR2K	MRPL13
POLR2K	CHCHD7	0.0272327428826825	undirected	POLR2K	CHCHD7
POLR2K	CHCHD7.1	0.0232123996084371	undirected	POLR2K	CHCHD7
POLR2K	CHCHD7.2	0.0222653667606889	undirected	POLR2K	CHCHD7
POLR2K	COPS5.2	0.024017588894729	undirected	POLR2K	COPS5
POLR2K	COPS5.3	0.0359702028116981	undirected	POLR2K	COPS5
MRPL13	CHCHD7	0.0203067614837098	undirected	MRPL13	CHCHD7
MRPL13	COPS5.1	0.0438606400986411	undirected	MRPL13	COPS5
MRPL13	COPS5.2	0.0342283419360968	undirected	MRPL13	COPS5
MRPL13	COPS5.3	0.0685212395820043	undirected	MRPL13	COPS5
CHCHD7	CHCHD7.1	0.252949033092408	undirected	CHCHD7	CHCHD7
CHCHD7	CHCHD7.2	0.20609751953114	undirected	CHCHD7	CHCHD7
CHCHD7.1	CHCHD7.2	0.202511301502437	undirected	CHCHD7	CHCHD7
CHCHD7.1	COPS5.3	0.020170139717903	undirected	CHCHD7	COPS5
CHCHD7.2	COPS5.2	0.0235341042448465	undirected	CHCHD7	COPS5
CHCHD7.2	COPS5.3	0.0244676583304995	undirected	CHCHD7	COPS5
NSMCE2.1	NSMCE2.3	0.175064676746964	undirected	NSMCE2	NSMCE2
NSMCE2.1	COPS5.1	0.0241825691492049	undirected	NSMCE2	COPS5
NSMCE2.1	COPS5.3	0.0230278553837022	undirected	NSMCE2	COPS5
NSMCE2.3	COPS5.1	0.0209157267272993	undirected	NSMCE2	COPS5
COPS5.1	COPS5.2	0.0976798595214348	undirected	COPS5	COPS5
COPS5.1	COPS5.3	0.176803114908465	undirected	COPS5	COPS5
COPS5.2	COPS5.3	0.130880995741141	undirected	COPS5	COPS5
RPL7	RPL7.1	0.643859295858592	undirected	RPL7	RPL7
ATP6V1C1	ATP6V1C1.1	0.29197513303048	undirected	ATP6V1C1	ATP6V1C1
ATP6V1C1	ATP6V1C1.2	0.283817079513664	undirected	ATP6V1C1	ATP6V1C1
ATP6V1C1.1	ATP6V1C1.2	0.287735976410046	undirected	ATP6V1C1	ATP6V1C1
