fromNode	toNode	weight	direction	fromAltName	toAltName
RPP30	RPP30.3	0.128154711664072	undirected	RPP30	RPP30
BMS1	BMS1.1	0.0207460264354665	undirected	BMS1	BMS1
BMS1	PPRC1	0.0258811164595794	undirected	BMS1	PPRC1
BMS1	PPRC1.1	0.034616062524868	undirected	BMS1	PPRC1
CPSF6	CPSF6.1	0.116024905850409	undirected	CPSF6	CPSF6
CPSF6	HNRNPU	0.0331518440229556	undirected	CPSF6	HNRNPU
TMEM138	TMEM138.1	0.0402326213586821	undirected	TMEM138	TMEM138
KAT5	KAT5.1	0.276955788744473	undirected	KAT5	KAT5
PSMD13	PSMD13.1	0.0716729389505005	undirected	PSMD13	PSMD13
SSBP1	SSBP1.1	0.0370283666398835	undirected	SSBP1	SSBP1
TPRKB	TPRKB.1	0.0565654542414585	undirected	TPRKB	TPRKB
UBE2C	UBE2C.1	0.0200206623493344	undirected	UBE2C	UBE2C
SUMO1	SUMO1.1	0.039070425744261	undirected	SUMO1	SUMO1
HNRNPK	HNRNPK.1	0.0457704650434345	undirected	HNRNPK	HNRNPK
HNRNPU	NOP58	0.0249436692060145	undirected	HNRNPU	NOP58
HNRNPU	DHX9	0.110876319410771	undirected	HNRNPU	DHX9
HNRNPU	SNRNP70	0.0247655005162317	undirected	HNRNPU	SNRNP70
HNRNPU	HNRNPD	0.0259774242520539	undirected	HNRNPU	HNRNPD
MRPS9	CCT5.2	0.0220451094503221	undirected	MRPS9	CCT5
DYNC1LI1	DYNC1LI1.1	0.0251348250617249	undirected	DYNC1LI1	DYNC1LI1
DYNC1LI1	DYNC1LI1.2	0.0717580283200687	undirected	DYNC1LI1	DYNC1LI1
DYNC1LI1.1	DYNC1LI1.2	0.0305811080485509	undirected	DYNC1LI1	DYNC1LI1
DYNC1LI1.2	CNOT10.4	0.0232886959312587	undirected	DYNC1LI1	CNOT10
FASTKD3	BRIX1.2	0.028077934852455	undirected	FASTKD3	BRIX1
FASTKD3	BRIX1.3	0.0258461539992168	undirected	FASTKD3	BRIX1
BRIX1	BRIX1.1	0.205347501022443	undirected	BRIX1	BRIX1
BRIX1	BRIX1.2	0.0846658144235237	undirected	BRIX1	BRIX1
BRIX1	BRIX1.3	0.0516047530471406	undirected	BRIX1	BRIX1
BRIX1	CCT5	0.0363845433605906	undirected	BRIX1	CCT5
BRIX1	CCT5.1	0.0232281260494936	undirected	BRIX1	CCT5
BRIX1	CCT5.2	0.0200416916099658	undirected	BRIX1	CCT5
BRIX1	CCT5.3	0.0395949725853145	undirected	BRIX1	CCT5
BRIX1	CCT5.4	0.0450971910516636	undirected	BRIX1	CCT5
BRIX1.1	BRIX1.2	0.147529890121397	undirected	BRIX1	BRIX1
BRIX1.1	BRIX1.3	0.111561719906024	undirected	BRIX1	BRIX1
BRIX1.1	SUB1.1	0.0208600098215548	undirected	BRIX1	SUB1
BRIX1.1	SUB1.3	0.0244172107052901	undirected	BRIX1	SUB1
BRIX1.1	SUB1.4	0.0221175578985666	undirected	BRIX1	SUB1
BRIX1.1	CCT5	0.0251920269648518	undirected	BRIX1	CCT5
BRIX1.1	CCT5.2	0.0216785593940771	undirected	BRIX1	CCT5
BRIX1.1	CCT5.3	0.0335555137028284	undirected	BRIX1	CCT5
BRIX1.1	CCT5.4	0.0483735036793842	undirected	BRIX1	CCT5
BRIX1.2	BRIX1.3	0.278875838675933	undirected	BRIX1	BRIX1
BRIX1.2	SUB1.1	0.0382617660332834	undirected	BRIX1	SUB1
BRIX1.2	SUB1.2	0.0288784237636431	undirected	BRIX1	SUB1
BRIX1.2	SUB1.3	0.0536616287385675	undirected	BRIX1	SUB1
BRIX1.2	SUB1.4	0.0432794728860921	undirected	BRIX1	SUB1
BRIX1.2	CCT5	0.0222469131401537	undirected	BRIX1	CCT5
BRIX1.2	CCT5.1	0.0236556575857421	undirected	BRIX1	CCT5
BRIX1.2	CCT5.2	0.0381390492344112	undirected	BRIX1	CCT5
BRIX1.2	CCT5.3	0.0369850014354113	undirected	BRIX1	CCT5
BRIX1.2	CCT5.4	0.0466610686363487	undirected	BRIX1	CCT5
BRIX1.3	SUB1.1	0.0340515463500779	undirected	BRIX1	SUB1
BRIX1.3	SUB1.2	0.0267686934909516	undirected	BRIX1	SUB1
BRIX1.3	SUB1.3	0.0502213007132152	undirected	BRIX1	SUB1
BRIX1.3	SUB1.4	0.0386662216667661	undirected	BRIX1	SUB1
BRIX1.3	NOP58	0.0226709825954114	undirected	BRIX1	NOP58
BRIX1.3	CCT5	0.0274848998490779	undirected	BRIX1	CCT5
BRIX1.3	CCT5.1	0.0355963673350276	undirected	BRIX1	CCT5
BRIX1.3	CCT5.2	0.0515939096877987	undirected	BRIX1	CCT5
BRIX1.3	CCT5.3	0.0460026765554318	undirected	BRIX1	CCT5
BRIX1.3	CCT5.4	0.0378674767240661	undirected	BRIX1	CCT5
SUB1	SUB1.1	0.0344963466432594	undirected	SUB1	SUB1
SUB1	SUB1.2	0.0335072425507625	undirected	SUB1	SUB1
SUB1	SUB1.3	0.0255575406163653	undirected	SUB1	SUB1
SUB1	SUB1.4	0.0316071494410877	undirected	SUB1	SUB1
SUB1.1	SUB1.2	0.34968193463664	undirected	SUB1	SUB1
SUB1.1	SUB1.3	0.361807669241978	undirected	SUB1	SUB1
SUB1.1	SUB1.4	0.394375254100712	undirected	SUB1	SUB1
SUB1.1	CCT5	0.0217351060946438	undirected	SUB1	CCT5
SUB1.1	CCT5.1	0.0231964403916726	undirected	SUB1	CCT5
SUB1.1	CCT5.2	0.038785677687443	undirected	SUB1	CCT5
SUB1.1	CCT5.3	0.0356746303759964	undirected	SUB1	CCT5
SUB1.2	SUB1.3	0.30636242949869	undirected	SUB1	SUB1
SUB1.2	SUB1.4	0.366838520528506	undirected	SUB1	SUB1
SUB1.2	CCT5	0.0352441550476912	undirected	SUB1	CCT5
SUB1.2	CCT5.1	0.0413287591157445	undirected	SUB1	CCT5
SUB1.2	CCT5.2	0.0543243164689113	undirected	SUB1	CCT5
SUB1.2	CCT5.3	0.0529845558089124	undirected	SUB1	CCT5
SUB1.2	CCT5.4	0.0201856658675285	undirected	SUB1	CCT5
SUB1.3	SUB1.4	0.411044806434061	undirected	SUB1	SUB1
SUB1.3	CCT5.2	0.0351614504953161	undirected	SUB1	CCT5
SUB1.3	CCT5.3	0.0282229413030911	undirected	SUB1	CCT5
SUB1.4	CCT5	0.023023974276899	undirected	SUB1	CCT5
SUB1.4	CCT5.1	0.0265405651429157	undirected	SUB1	CCT5
SUB1.4	CCT5.2	0.0443324674555781	undirected	SUB1	CCT5
SUB1.4	CCT5.3	0.0392890257976624	undirected	SUB1	CCT5
SUB1.4	CCT5.4	0.0203180052260148	undirected	SUB1	CCT5
CNOT10	CNOT10.1	0.06693582009459	undirected	CNOT10	CNOT10
CNOT10	CNOT10.2	0.0207988468356607	undirected	CNOT10	CNOT10
CNOT10	CNOT10.3	0.0964295771934872	undirected	CNOT10	CNOT10
CNOT10	CNOT10.4	0.109529058016916	undirected	CNOT10	CNOT10
CNOT10.1	CNOT10.2	0.0277015428632192	undirected	CNOT10	CNOT10
CNOT10.1	CNOT10.3	0.0834626225202534	undirected	CNOT10	CNOT10
CNOT10.1	CNOT10.4	0.11477797161253	undirected	CNOT10	CNOT10
CNOT10.2	CNOT10.3	0.0484769020413088	undirected	CNOT10	CNOT10
CNOT10.2	CNOT10.4	0.0425324204218803	undirected	CNOT10	CNOT10
CNOT10.3	CNOT10.4	0.100895762069031	undirected	CNOT10	CNOT10
NOP58	DHX9	0.0274345093050108	undirected	NOP58	DHX9
DHX9	SNRNP70	0.0246151892188634	undirected	DHX9	SNRNP70
DHX9	HNRNPD	0.0205579995613418	undirected	DHX9	HNRNPD
CCT5	CCT5.1	0.226391570902345	undirected	CCT5	CCT5
CCT5	CCT5.2	0.167216783587507	undirected	CCT5	CCT5
CCT5	CCT5.3	0.273132196436463	undirected	CCT5	CCT5
CCT5	CCT5.4	0.169847118455699	undirected	CCT5	CCT5
CCT5.1	CCT5.2	0.235930021586052	undirected	CCT5	CCT5
CCT5.1	CCT5.3	0.2630444419829	undirected	CCT5	CCT5
CCT5.1	CCT5.4	0.0874014396988575	undirected	CCT5	CCT5
CCT5.2	CCT5.3	0.231075887299389	undirected	CCT5	CCT5
CCT5.2	CCT5.4	0.0640362529597493	undirected	CCT5	CCT5
CCT5.3	CCT5.4	0.153738395074796	undirected	CCT5	CCT5
PPRC1	PPRC1.1	0.240294464227288	undirected	PPRC1	PPRC1
