fromNode	toNode	weight	direction	fromAltName	toAltName
USF1	SHC1.2	0.0234974370871049	undirected	USF1	SHC1
HGS	EXOC7.2	0.0241607431018896	undirected	HGS	EXOC7
UBE2Q1	SHC1.1	0.0200372467612239	undirected	UBE2Q1	SHC1
UBE2Q1	SHC1.2	0.0227581576764239	undirected	UBE2Q1	SHC1
EXOC7	EXOC7.1	0.109519734634234	undirected	EXOC7	EXOC7
EXOC7	EXOC7.2	0.0237972617462907	undirected	EXOC7	EXOC7
TOM1	TOM1.1	0.185230060228841	undirected	TOM1	TOM1
TOM1	TOM1.2	0.171148550879665	undirected	TOM1	TOM1
TOM1.1	TOM1.2	0.34108809213818	undirected	TOM1	TOM1
STX6	SHC1.1	0.0278032283136023	undirected	STX6	SHC1
STX6	SHC1.2	0.0326062436806101	undirected	STX6	SHC1
COPA	SHC1	0.0309757232708788	undirected	COPA	SHC1
COPA	SHC1.2	0.0302971315985564	undirected	COPA	SHC1
GTPBP2	GTPBP2.1	0.0612871235964108	undirected	GTPBP2	GTPBP2
ARFGAP2	ARFGAP2.1	0.0534234690878776	undirected	ARFGAP2	ARFGAP2
ARFGAP2	ARFGAP2.2	0.0302777815481512	undirected	ARFGAP2	ARFGAP2
ARFGAP2	ARFGAP2.3	0.038710623525709	undirected	ARFGAP2	ARFGAP2
ARFGAP2.1	ARFGAP2.2	0.14085875917865	undirected	ARFGAP2	ARFGAP2
ARFGAP2.1	ARFGAP2.3	0.0614834673799511	undirected	ARFGAP2	ARFGAP2
ARFGAP2.1	ARFGAP2.4	0.0250719282579317	undirected	ARFGAP2	ARFGAP2
ARFGAP2.2	ARFGAP2.3	0.07053184052019	undirected	ARFGAP2	ARFGAP2
ARFGAP2.2	ARFGAP2.4	0.0201335477631336	undirected	ARFGAP2	ARFGAP2
SHC1	SHC1.1	0.144914493371283	undirected	SHC1	SHC1
SHC1	SHC1.2	0.239674830208267	undirected	SHC1	SHC1
SHC1	SHC1.3	0.15211059495477	undirected	SHC1	SHC1
SHC1	SHC1.4	0.147771472803139	undirected	SHC1	SHC1
SHC1.1	SHC1.2	0.17092434559926	undirected	SHC1	SHC1
SHC1.1	SHC1.3	0.162197104766494	undirected	SHC1	SHC1
SHC1.1	SHC1.4	0.131194761308834	undirected	SHC1	SHC1
SHC1.2	SHC1.3	0.176939722809049	undirected	SHC1	SHC1
SHC1.2	SHC1.4	0.148283779637954	undirected	SHC1	SHC1
SHC1.3	SHC1.4	0.283038437061667	undirected	SHC1	SHC1
TCTA	TCTA.1	0.239277770778201	undirected	TCTA	TCTA
LMAN2L	LMAN2L.1	0.200581515422276	undirected	LMAN2L	LMAN2L
LMAN2L	LMAN2L.2	0.100755568701739	undirected	LMAN2L	LMAN2L
LMAN2L	LMAN2L.3	0.0400872901199971	undirected	LMAN2L	LMAN2L
LMAN2L.1	LMAN2L.2	0.0735998052855438	undirected	LMAN2L	LMAN2L
LMAN2L.1	LMAN2L.3	0.025153015917484	undirected	LMAN2L	LMAN2L
LMAN2L.2	LMAN2L.3	0.0341245381495476	undirected	LMAN2L	LMAN2L
CYB5R1	CYB5R1.1	0.126417137920454	undirected	CYB5R1	CYB5R1
CYB5R1	CYB5R1.2	0.0843595155112895	undirected	CYB5R1	CYB5R1
CYB5R1.1	CYB5R1.2	0.0834006205327901	undirected	CYB5R1	CYB5R1
