fromNode	toNode	weight	direction	fromAltName	toAltName
TAZ	TAZ.2	0.0634227781350301	undirected	TAZ	TAZ
TAZ	TAZ.5	0.0446833847503814	undirected	TAZ	TAZ
TAZ	FAM3A.3	0.0211863202855451	undirected	TAZ	FAM3A
TAZ	TAZ.6	0.048904738474728	undirected	TAZ	TAZ
TAZ.1	TAZ.2	0.0366581302457309	undirected	TAZ	TAZ
TAZ.1	TAZ.4	0.0844377152985508	undirected	TAZ	TAZ
TAZ.1	TAZ.6	0.0303764499106642	undirected	TAZ	TAZ
TAZ.2	TAZ.3	0.0246137543202632	undirected	TAZ	TAZ
TAZ.2	TAZ.4	0.049409422729753	undirected	TAZ	TAZ
TAZ.2	TAZ.5	0.0458514853690803	undirected	TAZ	TAZ
TAZ.2	FAM3A.1	0.0231722062347217	undirected	TAZ	FAM3A
TAZ.2	FAM3A.3	0.0200803141242068	undirected	TAZ	FAM3A
TAZ.2	FAM3A.4	0.0208467772185398	undirected	TAZ	FAM3A
TAZ.2	TAZ.6	0.0970858094106914	undirected	TAZ	TAZ
TAZ.4	TAZ.6	0.0349914591624176	undirected	TAZ	TAZ
TAZ.5	TAZ.6	0.0441613448478228	undirected	TAZ	TAZ
FAM3A	FAM3A.1	0.379822780653145	undirected	FAM3A	FAM3A
FAM3A	FAM3A.2	0.480880511314044	undirected	FAM3A	FAM3A
FAM3A	FAM3A.3	0.480925606277113	undirected	FAM3A	FAM3A
FAM3A	FAM3A.4	0.36277378322346	undirected	FAM3A	FAM3A
FAM3A	CXorf40A.3	0.0273304696547029	undirected	FAM3A	CXorf40A
FAM3A.1	FAM3A.2	0.393807022514472	undirected	FAM3A	FAM3A
FAM3A.1	FAM3A.3	0.382441431652568	undirected	FAM3A	FAM3A
FAM3A.1	FAM3A.4	0.372882900381771	undirected	FAM3A	FAM3A
FAM3A.1	TAZ.6	0.0281599930308803	undirected	FAM3A	TAZ
FAM3A.1	CXorf40A.3	0.0317268286191455	undirected	FAM3A	CXorf40A
FAM3A.2	FAM3A.3	0.521454619698835	undirected	FAM3A	FAM3A
FAM3A.2	FAM3A.4	0.37425556586722	undirected	FAM3A	FAM3A
FAM3A.2	CXorf40A.3	0.0224456271104643	undirected	FAM3A	CXorf40A
FAM3A.3	FAM3A.4	0.364900991309777	undirected	FAM3A	FAM3A
FAM3A.3	FAM50A	0.020390212282871	undirected	FAM3A	FAM50A
FAM3A.3	TAZ.6	0.0213641731023592	undirected	FAM3A	TAZ
FAM3A.3	CXorf40A.3	0.0276823969557778	undirected	FAM3A	CXorf40A
FAM3A.4	TAZ.6	0.0260131530775496	undirected	FAM3A	TAZ
FAM3A.4	CXorf40A.3	0.0306964421772432	undirected	FAM3A	CXorf40A
CCDC22	TSR2	0.0240988047469372	undirected	CCDC22	TSR2
CCDC22	TSR2.1	0.0215100677521995	undirected	CCDC22	TSR2
CCDC22	CXorf40A.3	0.0223190037026778	undirected	CCDC22	CXorf40A
CXorf40A	CXorf40A.1	0.033147691446841	undirected	CXorf40A	CXorf40A
CXorf40A	CXorf40A.3	0.0453054258860746	undirected	CXorf40A	CXorf40A
DNASE1L1	DNASE1L1.1	0.0468449239676392	undirected	DNASE1L1	DNASE1L1
TAZ.6	CXorf40A.3	0.0221230774253076	undirected	TAZ	CXorf40A
TSR2	TSR2.1	0.137619069419603	undirected	TSR2	TSR2
TSR2	CXorf40A.3	0.0241890339793845	undirected	TSR2	CXorf40A
CXorf40A.1	CXorf40A.2	0.0652696351840431	undirected	CXorf40A	CXorf40A
CXorf40A.1	CXorf40A.3	0.121018352391937	undirected	CXorf40A	CXorf40A
CXorf40A.2	CXorf40A.3	0.076980285936024	undirected	CXorf40A	CXorf40A
CXorf40A.3	GPKOW	0.0253017219328595	undirected	CXorf40A	GPKOW
PSMD10	UBL4A	0.0295536464383698	undirected	PSMD10	UBL4A
