fromNode	toNode	weight	direction	fromAltName	toAltName
MFAP1	LEO1	0.0278089644623619	undirected	MFAP1	LEO1
MFAP1	MFAP1.1	0.184782357535319	undirected	MFAP1	MFAP1
MFAP1	MFAP1.2	0.21397138141893	undirected	MFAP1	MFAP1
MFAP1	MFAP1.3	0.268639200764443	undirected	MFAP1	MFAP1
MFAP1	MORF4L1	0.0329919878023765	undirected	MFAP1	MORF4L1
SAE1	SAE1.1	0.0272846339513941	undirected	SAE1	SAE1
UNC45A	UNC45A.1	0.0384958762628292	undirected	UNC45A	UNC45A
UNC45A	UNC45A.2	0.0441471636688429	undirected	UNC45A	UNC45A
UNC45A	UNC45A.3	0.0526261386151445	undirected	UNC45A	UNC45A
UNC45A	UNC45A.4	0.051140012901037	undirected	UNC45A	UNC45A
LEO1	MFAP1.1	0.0318773812292886	undirected	LEO1	MFAP1
LEO1	MFAP1.2	0.0247524740225626	undirected	LEO1	MFAP1
MFAP1.1	MFAP1.2	0.213839553305757	undirected	MFAP1	MFAP1
MFAP1.1	MFAP1.3	0.155964220314801	undirected	MFAP1	MFAP1
MFAP1.1	MORF4L1	0.0304967517514877	undirected	MFAP1	MORF4L1
MFAP1.1	UNC45A.2	0.0211010290274788	undirected	MFAP1	UNC45A
MFAP1.2	MFAP1.3	0.2171798957328	undirected	MFAP1	MFAP1
MFAP1.2	MORF4L1	0.0487878173057453	undirected	MFAP1	MORF4L1
MFAP1.3	MORF4L1	0.0505946007450467	undirected	MFAP1	MORF4L1
ETFA	ETFA.1	0.0311137039526168	undirected	ETFA	ETFA
ETFA	RAB11A	0.0582063318704294	undirected	ETFA	RAB11A
ETFA	RAB11A.1	0.0388431328722915	undirected	ETFA	RAB11A
ETFA.1	RAB11A	0.0317848460855796	undirected	ETFA	RAB11A
ETFA.1	RAB11A.1	0.0322166271423275	undirected	ETFA	RAB11A
ANP32A	ANP32A.1	0.0402935125432094	undirected	ANP32A	ANP32A
ANP32A	ANP32A.2	0.0343563681407005	undirected	ANP32A	ANP32A
ANP32A.1	ANP32A.2	0.33700041211466	undirected	ANP32A	ANP32A
ANP32A.1	ANP32A.3	0.181141665602603	undirected	ANP32A	ANP32A
ANP32A.1	RAB11A.1	0.0260944032564533	undirected	ANP32A	RAB11A
ANP32A.1	FAM98B	0.0207545087903566	undirected	ANP32A	FAM98B
ANP32A.2	ANP32A.3	0.147200758004413	undirected	ANP32A	ANP32A
ANP32A.3	RAB11A.1	0.0209656471785782	undirected	ANP32A	RAB11A
ANP32A.3	FAM98B	0.0333253500022034	undirected	ANP32A	FAM98B
RAB11A	RAB11A.1	0.257073881451609	undirected	RAB11A	RAB11A
RAB11A	ZFAND6	0.02045112265319	undirected	RAB11A	ZFAND6
AQR	AQR.1	0.119303807026919	undirected	AQR	AQR
UNC45A.1	UNC45A.2	0.113649115534697	undirected	UNC45A	UNC45A
UNC45A.1	UNC45A.3	0.137131680828926	undirected	UNC45A	UNC45A
UNC45A.1	UNC45A.4	0.0986817577039769	undirected	UNC45A	UNC45A
UNC45A.2	UNC45A.3	0.136996452470496	undirected	UNC45A	UNC45A
UNC45A.2	UNC45A.4	0.0967990359981066	undirected	UNC45A	UNC45A
UNC45A.3	UNC45A.4	0.192919420943008	undirected	UNC45A	UNC45A
