fromNode	toNode	weight	direction	fromAltName	toAltName
KAT2A	D2HGDH	0.0282340135384199	undirected	KAT2A	D2HGDH
KAT2A	LUC7L	0.0236839006429414	undirected	KAT2A	LUC7L
KAT2A	AP1G2	0.0630299332310431	undirected	KAT2A	AP1G2
KAT2A	CTBP1	0.0237353851002555	undirected	KAT2A	CTBP1
KAT2A	CCDC57	0.021013007566746	undirected	KAT2A	CCDC57
ENGASE	ENGASE.1	0.0224180502313125	undirected	ENGASE	ENGASE
PRPF40B	PRPF40B.1	0.0317261308902217	undirected	PRPF40B	PRPF40B
PRPF40B	PRPF40B.3	0.056685036511518	undirected	PRPF40B	PRPF40B
PRPF40B.1	PRPF40B.3	0.0468037962423911	undirected	PRPF40B	PRPF40B
RRN3P1	RRN3P1.1	0.0247089010209089	undirected	RRN3P1	RRN3P1
PRPF4B	PRPF4B.1	0.056704065074306	undirected	PRPF4B	PRPF4B
PRPF4B	PRPF4B.2	0.0621649811934383	undirected	PRPF4B	PRPF4B
PRPF4B	PRPF4B.3	0.0364515885040031	undirected	PRPF4B	PRPF4B
PRPF4B	PRPF4B.5	0.107816085614927	undirected	PRPF4B	PRPF4B
PRPF4B.1	PRPF4B.2	0.0510751480441936	undirected	PRPF4B	PRPF4B
PRPF4B.1	PRPF4B.3	0.0411844489558813	undirected	PRPF4B	PRPF4B
PRPF4B.1	PRPF4B.5	0.0846518700036686	undirected	PRPF4B	PRPF4B
FARP2	FARP2.1	0.0871116386231961	undirected	FARP2	FARP2
AP1G2	PRPF4B.2	0.0215522629751221	undirected	AP1G2	PRPF4B
AP1G2	NOP58	0.0241429948421631	undirected	AP1G2	NOP58
PRPF4B.2	PRPF4B.3	0.0447583168357578	undirected	PRPF4B	PRPF4B
PRPF4B.2	PRPF4B.5	0.117268271036398	undirected	PRPF4B	PRPF4B
PRPF4B.3	PRPF4B.4	0.035308815432629	undirected	PRPF4B	PRPF4B
PRPF4B.3	PRPF4B.5	0.0557163308304536	undirected	PRPF4B	PRPF4B
PRPF4B.4	PRPF4B.5	0.0213221031272448	undirected	PRPF4B	PRPF4B
NOP58	SFPQ.2	0.0227463542196225	undirected	NOP58	SFPQ
NOP58	SFPQ.3	0.0212527702388791	undirected	NOP58	SFPQ
SFPQ	SFPQ.1	0.051016454736542	undirected	SFPQ	SFPQ
SFPQ	SFPQ.2	0.240429729167004	undirected	SFPQ	SFPQ
SFPQ	SFPQ.3	0.279824921949651	undirected	SFPQ	SFPQ
SFPQ.1	SFPQ.2	0.0869205691942597	undirected	SFPQ	SFPQ
SFPQ.1	SFPQ.3	0.0935711364742441	undirected	SFPQ	SFPQ
SFPQ.2	SFPQ.3	0.376277977194198	undirected	SFPQ	SFPQ
MRRF	MRRF.1	0.0352674521793892	undirected	MRRF	MRRF
PRPF40B.2	PRPF40B.3	0.0360318852546284	undirected	PRPF40B	PRPF40B
RABGGTB	RABGGTB.1	0.0889533764423312	undirected	RABGGTB	RABGGTB
