fromNode	toNode	weight	direction	fromAltName	toAltName
CHMP7	CHMP7.1	0.0856083806033717	undirected	CHMP7	CHMP7
CHMP7	KCTD9.1	0.0636374072570132	undirected	CHMP7	KCTD9
CHMP7	FAM160B2	0.0288708649415405	undirected	CHMP7	FAM160B2
CHMP7	FAM160B2.1	0.0231859900950394	undirected	CHMP7	FAM160B2
CHMP7	FAM160B2.2	0.020695684180614	undirected	CHMP7	FAM160B2
CHMP7	FAM160B2.3	0.0462085494347814	undirected	CHMP7	FAM160B2
CHMP7	FAM160B2.4	0.0215579377165862	undirected	CHMP7	FAM160B2
CHMP7	FAM160B2.5	0.0277860749164182	undirected	CHMP7	FAM160B2
CHMP7	FAM160B2.6	0.0417976463851062	undirected	CHMP7	FAM160B2
CHMP7	FAM160B2.7	0.0279188817514597	undirected	CHMP7	FAM160B2
CHMP7	FAM160B2.10	0.0275813988226668	undirected	CHMP7	FAM160B2
MTUS1	MTUS1.1	0.157357245239536	undirected	MTUS1	MTUS1
MTUS1	MTUS1.2	0.0857337375359729	undirected	MTUS1	MTUS1
MTUS1	MTUS1.3	0.0344646286875309	undirected	MTUS1	MTUS1
MTUS1	MTUS1.4	0.0493584426736536	undirected	MTUS1	MTUS1
MTUS1	MTUS1.5	0.0327836347345613	undirected	MTUS1	MTUS1
MTUS1.1	MTUS1.2	0.130347065685557	undirected	MTUS1	MTUS1
MTUS1.1	MTUS1.3	0.0318794718882983	undirected	MTUS1	MTUS1
MTUS1.1	MTUS1.4	0.0517953743561496	undirected	MTUS1	MTUS1
MTUS1.1	MTUS1.5	0.038294678590659	undirected	MTUS1	MTUS1
MTUS1.2	MTUS1.3	0.0214129279439726	undirected	MTUS1	MTUS1
MTUS1.2	MTUS1.4	0.0216882032056316	undirected	MTUS1	MTUS1
MTUS1.2	MTUS1.5	0.023797090285836	undirected	MTUS1	MTUS1
ENTPD4	XPO7.1	0.029842566044196	undirected	ENTPD4	XPO7
ENTPD4	ASAH1	0.0305917011812399	undirected	ENTPD4	ASAH1
ENTPD4	FAM160B2	0.0222656530344202	undirected	ENTPD4	FAM160B2
ENTPD4	FAM160B2.2	0.0233639767421217	undirected	ENTPD4	FAM160B2
ENTPD4	ASAH1.1	0.0336631837259828	undirected	ENTPD4	ASAH1
INTS9	EXTL3.1	0.0208569515238117	undirected	INTS9	EXTL3
INTS9	EXTL3.2	0.024632172594227	undirected	INTS9	EXTL3
TRIM35	ATP6V1B2	0.0201777604786662	undirected	TRIM35	ATP6V1B2
TRIM35	TRIM35.1	0.0328115587527454	undirected	TRIM35	TRIM35
PTK2B	FAM160B2.2	0.0270945958737929	undirected	PTK2B	FAM160B2
PTK2B	FAM160B2.3	0.0233224455725059	undirected	PTK2B	FAM160B2
PTK2B	FAM160B2.5	0.026897677307718	undirected	PTK2B	FAM160B2
PTK2B	FAM160B2.6	0.0249021976418282	undirected	PTK2B	FAM160B2
PTK2B	FAM160B2.7	0.0271714487660486	undirected	PTK2B	FAM160B2
EXTL3	EXTL3.1	0.119653821899812	undirected	EXTL3	EXTL3
EXTL3	EXTL3.2	0.14709006060446	undirected	EXTL3	EXTL3
EXTL3	EXTL3.3	0.114293184255962	undirected	EXTL3	EXTL3
EXTL3	EXTL3.4	0.0505038647875929	undirected	EXTL3	EXTL3
EXTL3	ATP6V1B2	0.0345093326384814	undirected	EXTL3	ATP6V1B2
EXTL3.1	EXTL3.2	0.129606877917782	undirected	EXTL3	EXTL3
EXTL3.1	EXTL3.3	0.0720743260703856	undirected	EXTL3	EXTL3
EXTL3.1	EXTL3.4	0.0461022678532135	undirected	EXTL3	EXTL3
EXTL3.1	ATP6V1B2	0.0334590447373515	undirected	EXTL3	ATP6V1B2
EXTL3.2	EXTL3.3	0.118131600009927	undirected	EXTL3	EXTL3
EXTL3.2	EXTL3.4	0.0420596424272784	undirected	EXTL3	EXTL3
EXTL3.2	ATP6V1B2	0.028939779619749	undirected	EXTL3	ATP6V1B2
EXTL3.3	EXTL3.4	0.0571869718802444	undirected	EXTL3	EXTL3
EXTL3.4	MFHAS1	0.0262244433214867	undirected	EXTL3	MFHAS1
EXTL3.4	ATP6V1B2	0.0351500503134873	undirected	EXTL3	ATP6V1B2
EXTL3.4	XPO7	0.0340502581786297	undirected	EXTL3	XPO7
EXTL3.4	XPO7.1	0.0473254609702272	undirected	EXTL3	XPO7
MFHAS1	ATP6V1B2	0.0356751751502834	undirected	MFHAS1	ATP6V1B2
MFHAS1	XPO7	0.0372261826622339	undirected	MFHAS1	XPO7
MFHAS1	XPO7.1	0.045619921518833	undirected	MFHAS1	XPO7
MFHAS1	AGPAT5.1	0.0208580120650642	undirected	MFHAS1	AGPAT5
MFHAS1	AGPAT5.2	0.021384580574308	undirected	MFHAS1	AGPAT5
MFHAS1	ASAH1.1	0.020877617125383	undirected	MFHAS1	ASAH1
ATP6V1B2	KCTD9	0.0209769176399813	undirected	ATP6V1B2	KCTD9
ATP6V1B2	XPO7	0.0416841480119356	undirected	ATP6V1B2	XPO7
ATP6V1B2	XPO7.1	0.0429703277586142	undirected	ATP6V1B2	XPO7
ATP6V1B2	ASAH1	0.0478734204619099	undirected	ATP6V1B2	ASAH1
ATP6V1B2	AGPAT5	0.0272951578983138	undirected	ATP6V1B2	AGPAT5
ATP6V1B2	AGPAT5.1	0.0259747252004586	undirected	ATP6V1B2	AGPAT5
ATP6V1B2	AGPAT5.2	0.0258763045727422	undirected	ATP6V1B2	AGPAT5
ATP6V1B2	AGPAT5.3	0.0225418879765673	undirected	ATP6V1B2	AGPAT5
ATP6V1B2	ASAH1.1	0.0550514134365894	undirected	ATP6V1B2	ASAH1
CHMP7.1	KCTD9.1	0.0260285349345658	undirected	CHMP7	KCTD9
CHMP7.1	FAM160B2.6	0.0234357530906987	undirected	CHMP7	FAM160B2
KCTD9	XPO7	0.0246420795539943	undirected	KCTD9	XPO7
KCTD9	XPO7.1	0.0202186148128384	undirected	KCTD9	XPO7
KCTD9	KCTD9.2	0.03777325508593	undirected	KCTD9	KCTD9
KCTD9	KCTD9.3	0.059057579825626	undirected	KCTD9	KCTD9
XPO7	XPO7.1	0.0888045685711716	undirected	XPO7	XPO7
XPO7	AGPAT5.1	0.0248053788929792	undirected	XPO7	AGPAT5
XPO7	AGPAT5.2	0.0256323102336246	undirected	XPO7	AGPAT5
XPO7.1	ASAH1	0.023304819758911	undirected	XPO7	ASAH1
XPO7.1	KCTD9.2	0.0263217327174701	undirected	XPO7	KCTD9
XPO7.1	KCTD9.3	0.0209849098352974	undirected	XPO7	KCTD9
XPO7.1	AGPAT5	0.0247192651975888	undirected	XPO7	AGPAT5
XPO7.1	AGPAT5.1	0.0325771751306704	undirected	XPO7	AGPAT5
XPO7.1	AGPAT5.2	0.0320368030654648	undirected	XPO7	AGPAT5
XPO7.1	AGPAT5.3	0.0212500724249555	undirected	XPO7	AGPAT5
XPO7.1	AGPAT5.5	0.0281751533890752	undirected	XPO7	AGPAT5
XPO7.1	ASAH1.1	0.0259534993677335	undirected	XPO7	ASAH1
MTUS1.3	MTUS1.5	0.128225612985229	undirected	MTUS1	MTUS1
ASAH1	ASAH1.1	0.227348192037157	undirected	ASAH1	ASAH1
MAK16	MAK16.1	0.197596940549881	undirected	MAK16	MAK16
MAK16	AGPAT5	0.0236099613955783	undirected	MAK16	AGPAT5
MAK16	AGPAT5.1	0.0315445598280629	undirected	MAK16	AGPAT5
MAK16	AGPAT5.2	0.0321515717033161	undirected	MAK16	AGPAT5
MAK16	AGPAT5.3	0.0200703795580978	undirected	MAK16	AGPAT5
MAK16	AGPAT5.5	0.025833730403887	undirected	MAK16	AGPAT5
MAK16.1	AGPAT5	0.0368593829829651	undirected	MAK16	AGPAT5
MAK16.1	AGPAT5.1	0.0464914455185845	undirected	MAK16	AGPAT5
MAK16.1	AGPAT5.2	0.0458362557460162	undirected	MAK16	AGPAT5
MAK16.1	AGPAT5.3	0.0293425257236477	undirected	MAK16	AGPAT5
MAK16.1	AGPAT5.5	0.0386293715986813	undirected	MAK16	AGPAT5
LONRF1	LONRF1.1	0.0612847391524494	undirected	LONRF1	LONRF1
LONRF1	LONRF1.2	0.0979923144577181	undirected	LONRF1	LONRF1
LONRF1	LONRF1.3	0.0894041427321876	undirected	LONRF1	LONRF1
LONRF1	LONRF1.4	0.0515609192319578	undirected	LONRF1	LONRF1
LONRF1.1	LONRF1.2	0.110827950643907	undirected	LONRF1	LONRF1
LONRF1.1	LONRF1.3	0.0416940717195435	undirected	LONRF1	LONRF1
LONRF1.1	LONRF1.4	0.0273145272552726	undirected	LONRF1	LONRF1
LONRF1.2	LONRF1.3	0.075224357500203	undirected	LONRF1	LONRF1
LONRF1.2	LONRF1.4	0.060308747579497	undirected	LONRF1	LONRF1
LONRF1.3	LONRF1.4	0.122810169961606	undirected	LONRF1	LONRF1
WRN	WRN.1	0.0902564622099662	undirected	WRN	WRN
WRN	WRN.2	0.0296138460407238	undirected	WRN	WRN
WRN	WRN.4	0.0318075003536497	undirected	WRN	WRN
WRN	WRN.5	0.0303045710740338	undirected	WRN	WRN
WRN.1	WRN.2	0.0280692815445485	undirected	WRN	WRN
WRN.1	WRN.3	0.0206008206806345	undirected	WRN	WRN
WRN.1	WRN.4	0.028622649649128	undirected	WRN	WRN
WRN.1	WRN.5	0.0272020286828456	undirected	WRN	WRN
WRN.2	WRN.4	0.0340898721214862	undirected	WRN	WRN
WRN.4	WRN.5	0.0386294623269422	undirected	WRN	WRN
ERI1	AGPAT5	0.0322233982809496	undirected	ERI1	AGPAT5
ERI1	AGPAT5.1	0.0390275054274477	undirected	ERI1	AGPAT5
ERI1	AGPAT5.2	0.0379172338368083	undirected	ERI1	AGPAT5
ERI1	AGPAT5.3	0.0337347089953797	undirected	ERI1	AGPAT5
ERI1	AGPAT5.5	0.0321463425015635	undirected	ERI1	AGPAT5
KCTD9.1	KCTD9.2	0.0296167841627792	undirected	KCTD9	KCTD9
KCTD9.1	KCTD9.3	0.0271626147374297	undirected	KCTD9	KCTD9
KCTD9.2	KCTD9.3	0.0901726006936435	undirected	KCTD9	KCTD9
FAM160B2	FAM160B2.1	0.131565119995535	undirected	FAM160B2	FAM160B2
FAM160B2	FAM160B2.2	0.111333146126942	undirected	FAM160B2	FAM160B2
FAM160B2	FAM160B2.3	0.129033043795443	undirected	FAM160B2	FAM160B2
FAM160B2	FAM160B2.4	0.0751612192062849	undirected	FAM160B2	FAM160B2
FAM160B2	FAM160B2.5	0.115052860506274	undirected	FAM160B2	FAM160B2
FAM160B2	FAM160B2.6	0.124758039388614	undirected	FAM160B2	FAM160B2
FAM160B2	FAM160B2.7	0.114606624877735	undirected	FAM160B2	FAM160B2
FAM160B2	FAM160B2.8	0.115534855769987	undirected	FAM160B2	FAM160B2
FAM160B2	FAM160B2.9	0.100803787935677	undirected	FAM160B2	FAM160B2
FAM160B2	FAM160B2.10	0.117642420448601	undirected	FAM160B2	FAM160B2
FAM160B2.1	FAM160B2.2	0.105803708557067	undirected	FAM160B2	FAM160B2
FAM160B2.1	FAM160B2.3	0.121479940266593	undirected	FAM160B2	FAM160B2
FAM160B2.1	FAM160B2.4	0.0934813753468822	undirected	FAM160B2	FAM160B2
FAM160B2.1	FAM160B2.5	0.104355962586942	undirected	FAM160B2	FAM160B2
FAM160B2.1	FAM160B2.6	0.129240301560647	undirected	FAM160B2	FAM160B2
FAM160B2.1	FAM160B2.7	0.121861760521449	undirected	FAM160B2	FAM160B2
FAM160B2.1	FAM160B2.8	0.154661590577633	undirected	FAM160B2	FAM160B2
FAM160B2.1	FAM160B2.9	0.149942338138644	undirected	FAM160B2	FAM160B2
FAM160B2.1	FAM160B2.10	0.127887941305894	undirected	FAM160B2	FAM160B2
FAM160B2.2	FAM160B2.3	0.0972428398529201	undirected	FAM160B2	FAM160B2
FAM160B2.2	FAM160B2.4	0.0870835943962111	undirected	FAM160B2	FAM160B2
FAM160B2.2	FAM160B2.5	0.0986912045980461	undirected	FAM160B2	FAM160B2
FAM160B2.2	FAM160B2.6	0.113272809764408	undirected	FAM160B2	FAM160B2
FAM160B2.2	FAM160B2.7	0.10555239658511	undirected	FAM160B2	FAM160B2
FAM160B2.2	FAM160B2.8	0.0838709719904031	undirected	FAM160B2	FAM160B2
FAM160B2.2	FAM160B2.9	0.0811604448381707	undirected	FAM160B2	FAM160B2
FAM160B2.2	FAM160B2.10	0.0915740684905299	undirected	FAM160B2	FAM160B2
FAM160B2.3	FAM160B2.4	0.0865582134051158	undirected	FAM160B2	FAM160B2
FAM160B2.3	FAM160B2.5	0.113234212599028	undirected	FAM160B2	FAM160B2
FAM160B2.3	FAM160B2.6	0.156800673243137	undirected	FAM160B2	FAM160B2
FAM160B2.3	FAM160B2.7	0.131203546909467	undirected	FAM160B2	FAM160B2
FAM160B2.3	FAM160B2.8	0.0965820109521243	undirected	FAM160B2	FAM160B2
FAM160B2.3	FAM160B2.9	0.103190111524375	undirected	FAM160B2	FAM160B2
FAM160B2.3	FAM160B2.10	0.123002455773022	undirected	FAM160B2	FAM160B2
FAM160B2.4	FAM160B2.5	0.108469106512907	undirected	FAM160B2	FAM160B2
FAM160B2.4	FAM160B2.6	0.111583105198951	undirected	FAM160B2	FAM160B2
FAM160B2.4	FAM160B2.7	0.105505496381542	undirected	FAM160B2	FAM160B2
FAM160B2.4	FAM160B2.8	0.0659176244714816	undirected	FAM160B2	FAM160B2
FAM160B2.4	FAM160B2.9	0.0810103645956522	undirected	FAM160B2	FAM160B2
FAM160B2.4	FAM160B2.10	0.10139093251037	undirected	FAM160B2	FAM160B2
FAM160B2.5	FAM160B2.6	0.134079082081474	undirected	FAM160B2	FAM160B2
FAM160B2.5	FAM160B2.7	0.143974896349061	undirected	FAM160B2	FAM160B2
FAM160B2.5	FAM160B2.8	0.102487929096859	undirected	FAM160B2	FAM160B2
FAM160B2.5	FAM160B2.9	0.101058819935252	undirected	FAM160B2	FAM160B2
FAM160B2.5	FAM160B2.10	0.133902526097146	undirected	FAM160B2	FAM160B2
FAM160B2.6	FAM160B2.7	0.143169570606894	undirected	FAM160B2	FAM160B2
FAM160B2.6	FAM160B2.8	0.108517812808228	undirected	FAM160B2	FAM160B2
FAM160B2.6	FAM160B2.9	0.119230998708558	undirected	FAM160B2	FAM160B2
FAM160B2.6	FAM160B2.10	0.119801850904356	undirected	FAM160B2	FAM160B2
FAM160B2.7	FAM160B2.8	0.117963488838799	undirected	FAM160B2	FAM160B2
FAM160B2.7	FAM160B2.9	0.108009058790538	undirected	FAM160B2	FAM160B2
FAM160B2.7	FAM160B2.10	0.127885207117211	undirected	FAM160B2	FAM160B2
FAM160B2.8	FAM160B2.9	0.12271897169968	undirected	FAM160B2	FAM160B2
FAM160B2.8	FAM160B2.10	0.120686786036537	undirected	FAM160B2	FAM160B2
AGPAT5	AGPAT5.1	0.375091890079101	undirected	AGPAT5	AGPAT5
AGPAT5	AGPAT5.2	0.338533812614064	undirected	AGPAT5	AGPAT5
AGPAT5	AGPAT5.3	0.274824851335464	undirected	AGPAT5	AGPAT5
AGPAT5	AGPAT5.4	0.15657628435372	undirected	AGPAT5	AGPAT5
AGPAT5	CNOT7	0.0226029760717473	undirected	AGPAT5	CNOT7
AGPAT5	AGPAT5.5	0.263873281304492	undirected	AGPAT5	AGPAT5
AGPAT5.1	AGPAT5.2	0.354329494430234	undirected	AGPAT5	AGPAT5
AGPAT5.1	AGPAT5.3	0.322080183744637	undirected	AGPAT5	AGPAT5
AGPAT5.1	AGPAT5.4	0.218144165455038	undirected	AGPAT5	AGPAT5
AGPAT5.1	CNOT7	0.030861241828922	undirected	AGPAT5	CNOT7
AGPAT5.1	AGPAT5.5	0.35949208123045	undirected	AGPAT5	AGPAT5
AGPAT5.2	AGPAT5.3	0.332830839754794	undirected	AGPAT5	AGPAT5
AGPAT5.2	AGPAT5.4	0.234689897462611	undirected	AGPAT5	AGPAT5
AGPAT5.2	CNOT7	0.0377972423854288	undirected	AGPAT5	CNOT7
AGPAT5.2	AGPAT5.5	0.340893140900538	undirected	AGPAT5	AGPAT5
AGPAT5.3	AGPAT5.4	0.187014325457141	undirected	AGPAT5	AGPAT5
AGPAT5.3	CNOT7	0.0308211910118215	undirected	AGPAT5	CNOT7
AGPAT5.3	AGPAT5.5	0.242701863220383	undirected	AGPAT5	AGPAT5
AGPAT5.4	CNOT7	0.0301965708003387	undirected	AGPAT5	CNOT7
AGPAT5.4	AGPAT5.5	0.193107907764978	undirected	AGPAT5	AGPAT5
CNOT7	AGPAT5.5	0.0270125580174491	undirected	CNOT7	AGPAT5
NAT1	NAT1.1	0.158340115177876	undirected	NAT1	NAT1
LPCAT1	LPCAT1.1	0.185694239010115	undirected	LPCAT1	LPCAT1
LPCAT1	LPCAT1.2	0.0683032810882153	undirected	LPCAT1	LPCAT1
LPCAT1	LPCAT1.3	0.116452569739562	undirected	LPCAT1	LPCAT1
LPCAT1.1	LPCAT1.2	0.0891780092887655	undirected	LPCAT1	LPCAT1
LPCAT1.1	LPCAT1.3	0.111404319294874	undirected	LPCAT1	LPCAT1
LPCAT1.2	LPCAT1.3	0.0790559630583995	undirected	LPCAT1	LPCAT1
FAM160B2.9	FAM160B2.10	0.118101094578364	undirected	FAM160B2	FAM160B2
